CLA.vcd
$date
	Mon Feb 06 14:07:03 2023
$end
$version
	Icarus Verilog
$end
$timescale
	100ps
$end
$scope module CLA_tb $end
$var wire 4 ! sum [3:0] $end
$var wire 1 " carry $end
$var reg 4 # A [3:0] $end
$var reg 4 $ B [3:0] $end
$scope module __c $end
$var wire 4 % A [3:0] $end
$var wire 4 & B [3:0] $end
$var wire 1 " carry $end
$var wire 4 ' g [3:0] $end
$var wire 4 ( p [3:0] $end
$var wire 1 ) p0c0 $end
$var wire 1 * p1g0 $end
$var wire 1 + p1p0c0 $end
$var wire 1 , p2g1 $end
$var wire 1 - p2g2 $end
$var wire 1 . p2p1g0 $end
$var wire 1 / p2p1g1 $end
$var wire 1 0 p2p1p0c0 $end
$var wire 1 1 p3p2p1g0 $end
$var wire 1 2 p3p2p1p0c0 $end
$var wire 4 3 sum [3:0] $end
$var wire 4 4 c [3:0] $end
$upscope $end
$upscope $end
$enddefinitions $end
$comment Show the parameter values. $end
$dumpall
$end
#0
$dumpvars
b0 4
bz 3
02
01
00
0/
0.
0-
0,
0+
0*
0)
b0 (
b0 '
b0 &
b0 %
b0 $
b0 #
0"
bz !
$end
#100
b1 (
b1 #
b1 %
#200
b10 (
b10 #
b10 %
#300
b11 (
b11 #
b11 %
#400
b100 (
b100 #
b100 %
#500
b101 (
b101 #
b101 %
#600
b110 (
b110 #
b110 %
#700
b111 (
b111 #
b111 %
#800
b1000 (
b1000 #
b1000 %
#900
b1001 (
b1001 #
b1001 %
#1000
b1010 (
b1010 #
b1010 %
#1100
b1011 (
b1011 #
b1011 %
#1200
b1100 (
b1100 #
b1100 %
#1300
b1101 (
b1101 #
b1101 %
#1400
b1110 (
b1110 #
b1110 %
#1500
b1111 (
b1111 #
b1111 %
#1600
b1 (
b0 #
b0 %
b1 $
b1 &
#1700
b10 4
b1 '
b0 (
b1 #
b1 %
#1800
b0 4
b0 '
b11 (
b10 #
b10 %
#1900
b110 4
1*
b1 '
b10 (
b11 #
b11 %
#2000
b0 4
0*
b0 '
b101 (
b100 #
b100 %
#2100
b10 4
b1 '
b100 (
b101 #
b101 %
#2200
b0 4
b0 '
b111 (
b110 #
b110 %
#2300
b1110 4
1*
1.
b1 '
b110 (
b111 #
b111 %
#2400
b0 4
0*
0.
b0 '
b1001 (
b1000 #
b1000 %
#2500
b10 4
b1 '
b1000 (
b1001 #
b1001 %
#2600
b0 4
b0 '
b1011 (
b1010 #
b1010 %
#2700
b110 4
1*
b1 '
b1010 (
b1011 #
b1011 %
#2800
b0 4
0*
b0 '
b1101 (
b1100 #
b1100 %
#2900
b10 4
b1 '
b1100 (
b1101 #
b1101 %
#3000
b0 4
b0 '
b1111 (
b1110 #
b1110 %
#3100
1"
b1110 4
1*
1.
11
b1 '
b1110 (
b1111 #
b1111 %
#3200
0"
b0 4
0*
0.
01
b0 '
b10 (
b0 #
b0 %
b10 $
b10 &
#3300
b11 (
b1 #
b1 %
#3400
b100 4
b10 '
b0 (
b10 #
b10 %
#3500
b1 (
b11 #
b11 %
#3600
b0 4
b0 '
b110 (
b100 #
b100 %
#3700
b111 (
b101 #
b101 %
#3800
b1100 4
1,
b10 '
b100 (
b110 #
b110 %
#3900
b101 (
b111 #
b111 %
#4000
b0 4
0,
b0 '
b1010 (
b1000 #
b1000 %
#4100
b1011 (
b1001 #
b1001 %
#4200
b100 4
b10 '
b1000 (
b1010 #
b1010 %
#4300
b1001 (
b1011 #
b1011 %
#4400
b0 4
b0 '
b1110 (
b1100 #
b1100 %
#4500
b1111 (
b1101 #
b1101 %
#4600
b1100 4
1,
b10 '
b1100 (
b1110 #
b1110 %
#4700
b1101 (
b1111 #
b1111 %
#4800
b0 4
0,
b0 '
b11 (
b0 #
b0 %
b11 $
b11 &
#4900
b110 4
1*
b1 '
b10 (
b1 #
b1 %
#5000
b100 4
0*
b10 '
b1 (
b10 #
b10 %
#5100
b110 4
b11 '
b0 (
b11 #
b11 %
#5200
b0 4
b0 '
b111 (
b100 #
b100 %
#5300
b1110 4
1*
1.
b1 '
b110 (
b101 #
b101 %
#5400
b1100 4
1,
0*
0.
b10 '
b101 (
b110 #
b110 %
#5500
b1110 4
b11 '
b100 (
b111 #
b111 %
#5600
b0 4
0,
b0 '
b1011 (
b1000 #
b1000 %
#5700
b110 4
1*
b1 '
b1010 (
b1001 #
b1001 %
#5800
b100 4
0*
b10 '
b1001 (
b1010 #
b1010 %
#5900
b110 4
b11 '
b1000 (
b1011 #
b1011 %
#6000
b0 4
b0 '
b1111 (
b1100 #
b1100 %
#6100
1"
b1110 4
1*
1.
11
b1 '
b1110 (
b1101 #
b1101 %
#6200
0"
b1100 4
1,
0*
0.
01
b10 '
b1101 (
b1110 #
b1110 %
#6300
b1110 4
b11 '
b1100 (
b1111 #
b1111 %
#6400
b0 4
0,
b0 '
b100 (
b0 #
b0 %
b100 $
b100 &
