CLA16_Higher_tb.vcd
$date
	Mon Feb 06 16:41:03 2023
$end
$version
	Icarus Verilog
$end
$timescale
	100ps
$end
$scope module CLA16_tb $end
$var wire 16 ! res [15:0] $end
$var wire 1 " ovflow $end
$var reg 16 # A [15:0] $end
$var reg 16 $ B [15:0] $end
$var reg 1 % sign $end
$var reg 1 & subtract $end
$scope module _C $end
$var wire 16 ' A [15:0] $end
$var wire 16 ( B [15:0] $end
$var wire 1 ) Cin $end
$var wire 1 * equal $end
$var wire 1 + equalC $end
$var wire 16 , g [15:0] $end
$var wire 1 - g0I $end
$var wire 1 . g1I $end
$var wire 1 / g2I $end
$var wire 1 0 g3I $end
$var wire 1 1 mint1 $end
$var wire 1 2 mint2 $end
$var wire 1 3 mint3 $end
$var wire 1 4 mint4 $end
$var wire 16 5 op3 [15:0] $end
$var wire 1 " overF $end
$var wire 16 6 p [15:0] $end
$var wire 1 7 p0I $end
$var wire 1 8 p0Ic0 $end
$var wire 1 9 p11g10 $end
$var wire 1 : p11p10g9 $end
$var wire 1 ; p11p10p9g8 $end
$var wire 1 < p15g14 $end
$var wire 1 = p15p14g13 $end
$var wire 1 > p15p14p13g12 $end
$var wire 1 ? p1I $end
$var wire 1 @ p1Ig0I $end
$var wire 1 A p1Ip0Ic0 $end
$var wire 1 B p2I $end
$var wire 1 C p2Ig1I $end
$var wire 1 D p2Ip1Ig0I $end
$var wire 1 E p2Ip1Ip0Ic0 $end
$var wire 1 F p3I $end
$var wire 1 G p3Ig2I $end
$var wire 1 H p3Ip2Ig1I $end
$var wire 1 I p3Ip2Ip1Ig0I $end
$var wire 1 J p3Ip2Ip1Ip0Ic0 $end
$var wire 1 K p3g2 $end
$var wire 1 L p3p2g1 $end
$var wire 1 M p3p2p1g0 $end
$var wire 1 N p7g6 $end
$var wire 1 O p7p6g5 $end
$var wire 1 P p7p6p5g4 $end
$var wire 1 % sign $end
$var wire 1 Q sign_bar $end
$var wire 1 & sub $end
$var wire 1 R sub_bar $end
$var wire 16 S sum [15:0] $end
$var wire 4 T carry [3:0] $end
$scope module cla1 $end
$var wire 4 U A [3:0] $end
$var wire 4 V B [3:0] $end
$var wire 1 W C2L $end
$var wire 1 ) Cin $end
$var wire 1 X carry $end
$var wire 4 Y g [3:0] $end
$var wire 4 Z p [3:0] $end
$var wire 1 [ p0c0 $end
$var wire 1 \ p1g0 $end
$var wire 1 ] p1p0c0 $end
$var wire 1 ^ p2g1 $end
$var wire 1 _ p2p1g0 $end
$var wire 1 ` p2p1p0c0 $end
$var wire 1 a p3g2 $end
$var wire 1 b p3p2g1 $end
$var wire 1 c p3p2p1g0 $end
$var wire 1 d p3p2p1p0c0 $end
$var wire 4 e sum [3:0] $end
$var wire 4 f c [3:0] $end
$upscope $end
$scope module cla2 $end
$var wire 4 g A [3:0] $end
$var wire 4 h B [3:0] $end
$var wire 1 i C2L $end
$var wire 1 j Cin $end
$var wire 1 k carry $end
$var wire 4 l g [3:0] $end
$var wire 4 m p [3:0] $end
$var wire 1 n p0c0 $end
$var wire 1 o p1g0 $end
$var wire 1 p p1p0c0 $end
$var wire 1 q p2g1 $end
$var wire 1 r p2p1g0 $end
$var wire 1 s p2p1p0c0 $end
$var wire 1 t p3g2 $end
$var wire 1 u p3p2g1 $end
$var wire 1 v p3p2p1g0 $end
$var wire 1 w p3p2p1p0c0 $end
$var wire 4 x sum [3:0] $end
$var wire 4 y c [3:0] $end
$upscope $end
$scope module cla3 $end
$var wire 4 z A [3:0] $end
$var wire 4 { B [3:0] $end
$var wire 1 | C2L $end
$var wire 1 } Cin $end
$var wire 1 ~ carry $end
$var wire 4 !" g [3:0] $end
$var wire 4 "" p [3:0] $end
$var wire 1 #" p0c0 $end
$var wire 1 $" p1g0 $end
$var wire 1 %" p1p0c0 $end
$var wire 1 &" p2g1 $end
$var wire 1 '" p2p1g0 $end
$var wire 1 (" p2p1p0c0 $end
$var wire 1 )" p3g2 $end
$var wire 1 *" p3p2g1 $end
$var wire 1 +" p3p2p1g0 $end
$var wire 1 ," p3p2p1p0c0 $end
$var wire 4 -" sum [3:0] $end
$var wire 4 ." c [3:0] $end
$upscope $end
$scope module cla4 $end
$var wire 4 /" A [3:0] $end
$var wire 4 0" B [3:0] $end
$var wire 1 1" C2L $end
$var wire 1 2" Cin $end
$var wire 1 3" carry $end
$var wire 4 4" g [3:0] $end
$var wire 4 5" p [3:0] $end
$var wire 1 6" p0c0 $end
$var wire 1 7" p1g0 $end
$var wire 1 8" p1p0c0 $end
$var wire 1 9" p2g1 $end
$var wire 1 :" p2p1g0 $end
$var wire 1 ;" p2p1p0c0 $end
$var wire 1 <" p3g2 $end
$var wire 1 =" p3p2g1 $end
$var wire 1 >" p3p2p1g0 $end
$var wire 1 ?" p3p2p1p0c0 $end
$var wire 4 @" sum [3:0] $end
$var wire 4 A" c [3:0] $end
$upscope $end
$upscope $end
$upscope $end
$enddefinitions $end
$comment Show the parameter values. $end
$dumpall
$end
#0
$dumpvars
b0 A"
b0 @"
0?"
0>"
0="
0<"
0;"
0:"
09"
08"
07"
06"
b0 5"
b0 4"
03"
02"
01"
b0 0"
b0 /"
b110 ."
b100 -"
0,"
0+"
0*"
0)"
0("
0'"
0&"
0%"
1$"
0#"
b10 ""
b1 !"
0~
0}
0|
b11 {
b1 z
b0 y
b110 x
0w
0v
0u
0t
0s
0r
0q
0p
0o
0n
b110 m
b0 l
0k
0j
0i
b100 h
b10 g
b1110 f
b1000 e
0d
0c
0b
0a
0`
1_
0^
0]
1\
0[
b110 Z
b1 Y
0X
1W
b101 V
b11 U
b0 T
b10001101000 S
1R
1Q
0P
0O
0N
0M
0L
0K
0J
0I
0H
0G
0F
0E
0D
0C
0B
0A
0@
0?
0>
0=
0<
0;
0:
09
08
07
b1001100110 6
b1101000101 5
04
03
02
11
00
0/
0.
0-
b100000001 ,
1+
0*
0)
b1101000101 (
b100100011 '
0&
0%
b1101000101 $
b100100011 #
0"
b10001101000 !
$end
#200
1"
1+
11"
13
0*
13"
b1110 A"
17"
1:"
1>"
1>
b1 4"
0F
b10001101000 !
b10001101000 S
b0 @"
b1000100000001 ,
b1 0"
b1110 5"
b1001101000101 5
b1110001001100110 6
b1111 /"
b1001101000101 $
b1001101000101 (
b1111000100100011 #
b1111000100100011 '
#400
0W
0\
0_
b100 y
b0 ."
0$"
b1100 A"
07"
0:"
0>"
1[
0>
b1101 x
b1101 -"
b1101 @"
b1101110111011110 !
b1101110111011110 S
b1110 e
03
b10 Y
b1001 Z
b10 l
b1001 m
b0 !"
b1101 ""
b1110 4"
b1 5"
b111 f
01
14
b1110000000100010 ,
b1110110011001 6
b1010 V
b1011 h
b1100 {
b1110 0"
1)
0R
12
b1110110010111010 5
1&
#600
1W
1+
01"
0*
1\
1_
b0 y
b110 ."
1$"
03"
0[
b110 x
b100 -"
b0 A"
b1000 e
03
0"
b1 Y
b110 Z
b0 l
b110 m
b1 !"
b10 ""
b10001101000 !
b10001101000 S
b0 @"
b1110 f
11
04
b101 V
b100 h
b11 {
b0 0"
b0 4"
b0 5"
0)
1R
02
b1101000101 5
b100000001 ,
b1001100110 6
b0 /"
0&
b1101000101 $
b1101000101 (
b100100011 #
b100100011 '
#800
0+
1*
11"
b1110 A"
b111 4"
b1110010001101000 !
b1110010001101000 S
b1110 @"
b111000100000001 ,
b111 0"
b0 5"
b111001101000101 5
b1001100110 6
b111 /"
b111001101000101 $
b111001101000101 (
b111000100100011 #
b111000100100011 '
#1000
1"
14
1+
0*
13"
0<"
b1111 4"
0<
b1110010001101000 !
b1110010001101000 S
b1110 @"
01
b1111000100000001 ,
b1111 0"
b0 5"
0Q
12
b1111001101000101 5
b1001100110 6
b1111 /"
1%
b1111001101000101 $
b1111001101000101 (
b1111000100100011 #
b1111000100100011 '
#1200
0"
04
0+
1*
01"
b100 A"
09"
b100010001101000 !
b100010001101000 S
b100 @"
b1010 0"
b1010 4"
b0 5"
b1010001101000101 5
b1010000100000001 ,
b1001100110 6
b1010 /"
b1010001101000101 $
b1010001101000101 (
b1010000100100011 #
b1010000100100011 '
#1400
1"
14
1+
0*
11"
17"
1:"
1>"
b1110 A"
1>
09"
b1 4"
b10001101000 !
b10001101000 S
b0 @"
b1000100000001 ,
b1 0"
b1110 5"
b1001101000101 5
b1110001001100110 6
b1111 /"
b1001101000101 $
b1001101000101 (
b1111000100100011 #
b1111000100100011 '
#1600
1"
14
0W
1+
01"
0*
03"
0\
0_
b100 y
b0 ."
0$"
1[
b1101 x
b1101 -"
b0 A"
07"
0:"
0>"
b1110 e
b10 Y
b1001 Z
b10 l
b1001 m
b0 !"
b1101 ""
0>
b10110111011110 !
b10110111011110 S
b10 @"
b111 f
b1010 V
b1011 h
b1100 {
b0 0"
b0 4"
b10 5"
1)
0R
b110010111010 5
b100010 ,
b10110110011001 6
b10 /"
1&
b1111001101000101 $
b1111001101000101 (
b10000100100011 #
b10000100100011 '
#1800
0"
04
0+
1*
11"
17"
b1110 A"
b101 4"
b1100110111011110 !
b1100110111011110 S
b1100 @"
b101000000100010 ,
b101 0"
b10 5"
b101110010111010 5
b10110110011001 6
b111 /"
b1010001101000101 $
b1010001101000101 (
b111000100100011 #
b111000100100011 '
